<?xml version="1.0" encoding="UTF-8" standalone="no"?>
<svg
   xmlns:dc="http://purl.org/dc/elements/1.1/"
   xmlns:cc="http://creativecommons.org/ns#"
   xmlns:rdf="http://www.w3.org/1999/02/22-rdf-syntax-ns#"
   xmlns:svg="http://www.w3.org/2000/svg"
   xmlns="http://www.w3.org/2000/svg"
   xmlns:xlink="http://www.w3.org/1999/xlink"
   xmlns:sodipodi="http://sodipodi.sourceforge.net/DTD/sodipodi-0.dtd"
   xmlns:inkscape="http://www.inkscape.org/namespaces/inkscape"
   inkscape:version="1.0 (4035a4fb49, 2020-05-01)"
   sodipodi:docname="silver.svg"
   id="svg20"
   version="1.1"
   fill="none"
   viewBox="0 0 244.2426 250"
   height="250"
   width="244.2426">
  <metadata
     id="metadata26">
    <rdf:RDF>
      <cc:Work
         rdf:about="">
        <dc:format>image/svg+xml</dc:format>
        <dc:type
           rdf:resource="http://purl.org/dc/dcmitype/StillImage" />
        <dc:title></dc:title>
      </cc:Work>
    </rdf:RDF>
  </metadata>
  <defs
     id="defs24">
    <linearGradient
       inkscape:collect="always"
       id="linearGradient2353">
      <stop
         style="stop-color:#7f8c8d;stop-opacity:1"
         offset="0"
         id="stop2349" />
      <stop
         style="stop-color:#95a5a6;stop-opacity:1"
         offset="1"
         id="stop2351" />
    </linearGradient>
    <linearGradient
       gradientTransform="translate(-307.40086)"
       y2="0"
       x2="121.98886"
       y1="244"
       x1="121.98886"
       gradientUnits="userSpaceOnUse"
       id="linearGradient2347"
       xlink:href="#linearGradient2353"
       inkscape:collect="always" />
    <linearGradient
       y2="-176.16415"
       id="linearGradient2292-9"
       x1="121.99"
       x2="121.99"
       y1="250"
       gradientTransform="translate(900.00866,8.00041)"
       gradientUnits="userSpaceOnUse">
      <stop
         style="stop-color:#1d99f3;stop-opacity:1"
         stop-color="#da4453"
         offset="0"
         id="stop9" />
      <stop
         style="stop-color:#fcfcfc;stop-opacity:1"
         stop-color="#3daee9"
         offset="1"
         id="stop11" />
    </linearGradient>
  </defs>
  <sodipodi:namedview
     inkscape:snap-intersection-paths="true"
     inkscape:object-paths="true"
     inkscape:snap-bbox-midpoints="true"
     inkscape:snap-bbox-edge-midpoints="true"
     inkscape:bbox-nodes="true"
     inkscape:bbox-paths="true"
     inkscape:snap-bbox="true"
     inkscape:showpageshadow="false"
     showborder="true"
     inkscape:current-layer="svg20"
     inkscape:window-maximized="1"
     inkscape:window-y="20"
     inkscape:window-x="0"
     inkscape:cy="63.228571"
     inkscape:cx="640.70573"
     inkscape:zoom="0.45316009"
     showguides="false"
     inkscape:snap-page="true"
     showgrid="false"
     id="namedview22"
     inkscape:window-height="748"
     inkscape:window-width="1366"
     inkscape:pageshadow="2"
     inkscape:pageopacity="1"
     guidetolerance="10"
     gridtolerance="10"
     objecttolerance="10"
     borderopacity="0.32156863"
     bordercolor="#ffffff"
     pagecolor="#232629">
    <inkscape:grid
       originy="0"
       originx="899.99999"
       id="grid2261"
       type="xygrid" />
  </sodipodi:namedview>
  <g
     transform="translate(307.40086)"
     id="g2414">
    <circle
       style="fill:#4d4d4d;fill-opacity:1;stroke-width:56.5228;stroke-linecap:square;stroke-linejoin:round;stroke-dashoffset:531.552"
       id="circle2337"
       cx="-185.15826"
       cy="128"
       r="122" />
    <circle
       r="122"
       cy="122"
       cx="-185.40086"
       id="circle2339"
       style="fill:url(#linearGradient2347);fill-opacity:1;stroke-width:56.5228;stroke-linecap:square;stroke-linejoin:round;stroke-dashoffset:531.552" />
    <path
       d="m -185.71336,10 c -24.41299,0 -46.97476,7.82089 -65.33594,21.085938 3.05298,1.906627 6.11,3.815374 9.29492,5.792968 C -225.68223,26.218824 -206.41682,20 -185.71336,20 c 56.06623,0 101.624996,45.558267 101.624996,101.625 0,56.06721 -45.558796,101.625 -101.624996,101.625 -56.06686,0 -101.625,-45.55782 -101.625,-101.625 0,-19.31904 5.41059,-37.389519 14.79492,-52.779297 -2.45226,-2.558031 -4.84397,-5.049813 -7.18164,-7.476562 -11.14968,17.374613 -17.61328,38.051773 -17.61328,60.255859 0,61.70779 49.9168,111.625 111.625,111.625 61.70778,0 111.624996,-49.91722 111.624996,-111.625 C -74.088364,59.917012 -124.00557,10 -185.71336,10 Z"
       style="color:#000000;font-style:normal;font-variant:normal;font-weight:normal;font-stretch:normal;font-size:medium;line-height:normal;font-family:sans-serif;font-variant-ligatures:normal;font-variant-position:normal;font-variant-caps:normal;font-variant-numeric:normal;font-variant-alternates:normal;font-variant-east-asian:normal;font-feature-settings:normal;font-variation-settings:normal;text-indent:0;text-align:start;text-decoration:none;text-decoration-line:none;text-decoration-style:solid;text-decoration-color:#000000;letter-spacing:normal;word-spacing:normal;text-transform:none;writing-mode:lr-tb;direction:ltr;text-orientation:mixed;dominant-baseline:auto;baseline-shift:baseline;text-anchor:start;white-space:normal;shape-padding:0;shape-margin:0;inline-size:0;clip-rule:nonzero;display:inline;overflow:visible;visibility:visible;isolation:auto;mix-blend-mode:normal;color-interpolation:sRGB;color-interpolation-filters:linearRGB;solid-color:#000000;solid-opacity:1;vector-effect:none;fill:#ffffff;fill-opacity:1;fill-rule:nonzero;stroke:none;stroke-width:10;stroke-linecap:butt;stroke-linejoin:miter;stroke-miterlimit:4;stroke-dasharray:none;stroke-dashoffset:0;stroke-opacity:1;color-rendering:auto;image-rendering:auto;shape-rendering:auto;text-rendering:auto;enable-background:accumulate;stop-color:#000000"
       id="path2341" />
    <path
       style="fill:#ffffff;fill-opacity:1"
       d="m -296.78172,15.931641 c -1.52236,0.08518 -2.96388,0.744447 -4.22461,2.248047 -3.22945,4.116999 -0.32014,8.254768 3.33203,11.605468 3.65229,3.3508 53.62181,55.017238 67.00391,70.335934 10.50552,12.02593 32.6201,29.78988 49.18359,28.32032 6.08105,4.56199 20.75126,15.4569 25.70899,18.07226 -0.16994,2.36091 0.23078,4.77222 1.00976,7.17774 4.239,13.093 21.28874,22.0282 10.80274,35.5332 20.187,-11.419 26.06279,-31.31028 18.09179,-45.86328 -4.97856,-9.08986 -12.52492,-12.24419 -18.94336,-10.29688 -3.79501,-4.59029 -19.17225,-18.10591 -23.86328,-22.20117 -3.07301,-16.084298 -24.12199,-33.213001 -37.63281,-40.773436 -17.7504,-9.9329 -78.61789,-48.162622 -82.65039,-51.044922 -2.52013,-1.801313 -5.28111,-3.255255 -7.81836,-3.113281 z"
       id="path2343" />
    <path
       sodipodi:nodetypes="ccccccc"
       style="fill:#ffffff;fill-opacity:1"
       id="path2345"
       fill="white"
       d="m -266.71266,122.335 c 7.0092,16.381 47.8302,60.097 100.4368,31.38 -0.227,2.455 0.174,4.967 0.985,7.473 1.439,4.443 4.352,8.407 7.164,12.233 4.969,6.761 9.621,13.091 5.263,20.872 -18.062,7.141 -39.306,5.26 -54.7782,0.025 -32.7232,-11.071 -54.3843,-39.837 -59.0706,-71.983 z"
       clip-rule="evenodd"
       fill-rule="evenodd" />
  </g>
</svg>
