<?xml version="1.0" encoding="UTF-8"?>
<svg width="244.24" height="250" fill="none" version="1.1" viewBox="0 0 244.24 250" xmlns="http://www.w3.org/2000/svg" xmlns:cc="http://creativecommons.org/ns#" xmlns:dc="http://purl.org/dc/elements/1.1/" xmlns:rdf="http://www.w3.org/1999/02/22-rdf-syntax-ns#" xmlns:xlink="http://www.w3.org/1999/xlink">
 <metadata>
  <rdf:RDF>
   <cc:Work rdf:about="">
    <dc:format>image/svg+xml</dc:format>
    <dc:type rdf:resource="http://purl.org/dc/dcmitype/StillImage"/>
    <dc:title/>
   </cc:Work>
  </rdf:RDF>
 </metadata>
 <defs>
  <linearGradient id="linearGradient2292-9" x1="121.99" x2="121.99" y1="250" y2="-176.16" gradientTransform="translate(900.01 8.0004)" gradientUnits="userSpaceOnUse">
   <stop stop-color="#1d99f3" offset="0"/>
   <stop stop-color="#fcfcfc" offset="1"/>
  </linearGradient>
  <linearGradient id="linearGradient2617" x1="121.99" x2="121.99" y1="250" y2="-176.16" gradientTransform="translate(900.01 8.0004)" gradientUnits="userSpaceOnUse" xlink:href="#linearGradient2292-9"/>
 </defs>
 <g transform="translate(-1200 -.00058199)">
  <g transform="translate(299.99 -7.9998)">
   <path d="m1144.2 136a122 122 0 0 1-122 122 122 122 0 0 1-122-122 122 122 0 0 1 122-122 122 122 0 0 1 122 122" fill="#2980b9" stroke-dashoffset="531.55" stroke-linecap="square" stroke-linejoin="round" stroke-width="56.523"/>
   <path d="m1144 130a122 122 0 0 1-122 122 122 122 0 0 1-122-122 122 122 0 0 1 122-122 122 122 0 0 1 122 122" fill="url(#linearGradient2617)" stroke-dashoffset="531.55" stroke-linecap="square" stroke-linejoin="round" stroke-width="56.523"/>
   <g stroke-dashoffset="531.55" stroke-linecap="square" stroke-linejoin="round" stroke-width="56.523">
    <path d="m935.74 43.733a122 122 0 0 1 54.691-31.576l31.576 117.84z" fill="#a8d7f9"/>
    <path d="m1139.9 98.424a122 122 0 0 1 0 63.152l-117.84-31.576z" fill="url(#linearGradient2617)"/>
    <g>
     <path d="m1108.3 43.733a122 122 0 0 1 31.576 54.691l-117.84 31.576z" fill="#8ecbf8"/>
     <path d="m1139.9 161.58a122 122 0 0 1-31.576 54.691l-86.267-86.267z" fill="#47acf5"/>
     <path d="m1108.3 216.27a122 122 0 0 1-54.691 31.576l-31.576-117.84z" fill="#36a4f4"/>
     <path d="m1053.6 247.84a122 122 0 0 1-63.152 0l31.576-117.84z" fill="#239cf3"/>
     <path d="m990.43 247.84a122 122 0 0 1-54.691-31.576l86.267-86.267z" fill="#36a4f4"/>
     <path d="m935.74 216.27a122 122 0 0 1-31.576-54.691l117.84-31.576z" fill="#47acf5"/>
     <path d="m904.17 161.58a122 122 0 0 1 0-63.152l117.84 31.576z" fill="#60b7f6"/>
     <path d="m904.17 98.424a122 122 0 0 1 31.576-54.691l86.267 86.267z" fill="#8ecbf8"/>
     <path d="m1053.6 12.157a122 122 0 0 1 54.691 31.576l-86.267 86.267z" fill="#a8d7f9"/>
     <path d="m990.43 12.157a122 122 0 0 1 63.152 1e-6l-31.576 117.84z" fill="#b4dcfa"/>
    </g>
   </g>
   <g transform="translate(576.44 8.0004)" fill="#fff">
    <path d="m445.25 10c-24.413 0-46.975 7.8209-65.336 21.086 3.053 1.9066 6.11 3.8154 9.2949 5.793 16.072-10.66 35.338-16.879 56.041-16.879 56.066 0 101.62 45.558 101.62 101.62 0 56.067-45.559 101.62-101.62 101.62-56.067 0-101.62-45.558-101.62-101.62 0-19.319 5.4106-37.39 14.795-52.779-2.4523-2.558-4.844-5.0498-7.1816-7.4766-11.15 17.375-17.613 38.052-17.613 60.256 0 61.708 49.917 111.62 111.62 111.62 61.708 0 111.62-49.917 111.62-111.62 0-61.708-49.917-111.62-111.62-111.62z" color="#000000" color-rendering="auto" dominant-baseline="auto" image-rendering="auto" shape-rendering="auto" solid-color="#000000" stop-color="#000000" style="font-feature-settings:normal;font-variant-alternates:normal;font-variant-caps:normal;font-variant-east-asian:normal;font-variant-ligatures:normal;font-variant-numeric:normal;font-variant-position:normal;font-variation-settings:normal;inline-size:0;isolation:auto;mix-blend-mode:normal;shape-margin:0;shape-padding:0;text-decoration-color:#000000;text-decoration-line:none;text-decoration-style:solid;text-indent:0;text-orientation:mixed;text-transform:none;white-space:normal"/>
    <path d="m334.18 15.932c-1.5224 0.08518-2.9639 0.74445-4.2246 2.248-3.2294 4.117-0.32014 8.2548 3.332 11.605 3.6523 3.3508 53.622 55.017 67.004 70.336 10.506 12.026 32.62 29.79 49.184 28.32 6.081 4.562 20.751 15.457 25.709 18.072-0.16994 2.3609 0.23078 4.7722 1.0098 7.1777 4.239 13.093 21.289 22.028 10.803 35.533 20.187-11.419 26.063-31.31 18.092-45.863-4.9786-9.0899-12.525-12.244-18.943-10.297-3.795-4.5903-19.172-18.106-23.863-22.201-3.073-16.084-24.122-33.213-37.633-40.773-17.75-9.9329-78.618-48.163-82.65-51.045-2.5201-1.8013-5.2811-3.2553-7.8184-3.1133z"/>
    <path d="m364.25 122.34c7.0092 16.381 47.83 60.097 100.44 31.38-0.227 2.455 0.174 4.967 0.985 7.473 1.439 4.443 4.352 8.407 7.164 12.233 4.969 6.761 9.621 13.091 5.263 20.872-18.062 7.141-39.306 5.26-54.778 0.025-32.723-11.071-54.384-39.837-59.071-71.983z" clip-rule="evenodd" fill-rule="evenodd"/>
   </g>
  </g>
 </g>
</svg>
